<svg version="1.1" xmlns="http://www.w3.org/2000/svg" xmlns:xlink="http://www.w3.org/1999/xlink" width="32" height="32" viewBox="0 0 32 32">
<g>
</g>
	<path d="M0 0v32h32v-32h-32zM30 30h-28v-28h28v28zM24 7l-10 10-6-6-4 4 10 10 14-14-4-4z" fill="#000000" />
</svg>
